Section 3: Inference for Means – Stat 102 Notes
…
We do need to check the conditions to see if we can use the mathematical model. We can use dotplot to check for extreme outliers. However, this data set is structured differently than we have seen before, and we’ll need to restructure. There are two ways to do this, but one will require a couple of new packages: tidyr and tidyverse.

library(tidyverse)
library(tidyr)

One way to restructure:

athletes2 <- athletes %>% pivot_longer(cols=c('Baseball','Soccer'), names_to='Sport',values_to='Weight')

athletes2

# A tibble: 32 × 2
   Sport    Weight
   <chr>     <int>
 1 Baseball    190
 2 Soccer      165
 3 Baseball    200
 4 Soccer      190
 5 Baseball    187
 6 Soccer      185
 7 Baseball    182
 8 Soccer      187
 9 Baseball    192
10 Soccer      183
# ℹ 22 more rows
…
